Mystic mops project 3
…
edlvl - education level of the respondent, ordinal variable with 5 levels:

the biggest category is upper secondary education (almost 600); second biggest - lower secondary or less (~350); the higher levels of education contain about 300 respondents each; so we can say that Finnish people tend to pursue voctional or higher university education.

Descriptives of variables

Now we create a data frame only with our new variables and label them. Then we create a table with value descriptives.

ESS3_1 <- c("netusemin", "age", "eduyrs_n", "happylvl", "edlvl")
ESS3_1 <- ESS3[ESS3_1]
ESS3_1

## # A tibble: 1,755 x 5
##    netusemin   age eduyrs_n happylvl edlvl                  
##        <dbl> <dbl>    <dbl>    <dbl> <ord>                  
##  1       120    71       10        9 advanced vocational    
##  2       240    29       18        9 MA or higher           
##  3        60    77        8        9 lower secondary or less
##  4       240    46       21        9 MA or higher           
##  5       570    57       11        9 upper secondary        
##  6       240    39       17       10 BA                     
##  7       150    19       12        8 lower secondary or less
##  8       300    43       15        8 upper secondary        
##  9        NA    90       13        6 upper secondary        
## 10        NA    65        8        8 lower secondary or less
## # ... with 1,745 more rows
…
